(kicad_pcb (version 20221018) (generator pcbnew)

  (general
    (thickness 1.6)
  )

  (paper "A5")
  (title_block
    (title "Amiga 4000 IDE Terminator")
    (date "2021-02-21")
    (rev "1.0")
  )

  (layers
    (0 "F.Cu" signal)
    (31 "B.Cu" signal)
    (32 "B.Adhes" user "B.Adhesive")
    (33 "F.Adhes" user "F.Adhesive")
    (34 "B.Paste" user)
    (35 "F.Paste" user)
    (36 "B.SilkS" user "B.Silkscreen")
    (37 "F.SilkS" user "F.Silkscreen")
    (38 "B.Mask" user)
    (39 "F.Mask" user)
    (40 "Dwgs.User" user "User.Drawings")
    (41 "Cmts.User" user "User.Comments")
    (42 "Eco1.User" user "User.Eco1")
    (43 "Eco2.User" user "User.Eco2")
    (44 "Edge.Cuts" user)
    (45 "Margin" user)
    (46 "B.CrtYd" user "B.Courtyard")
    (47 "F.CrtYd" user "F.Courtyard")
    (48 "B.Fab" user)
    (49 "F.Fab" user)
    (50 "User.1" user)
    (51 "User.2" user)
    (52 "User.3" user)
    (53 "User.4" user)
    (54 "User.5" user)
    (55 "User.6" user)
    (56 "User.7" user)
    (57 "User.8" user)
    (58 "User.9" user)
  )

  (setup
    (stackup
      (layer "F.SilkS" (type "Top Silk Screen"))
      (layer "F.Paste" (type "Top Solder Paste"))
      (layer "F.Mask" (type "Top Solder Mask") (color "Green") (thickness 0.01))
      (layer "F.Cu" (type "copper") (thickness 0.035))
      (layer "dielectric 1" (type "core") (thickness 1.51) (material "FR4") (epsilon_r 4.5) (loss_tangent 0.02))
      (layer "B.Cu" (type "copper") (thickness 0.035))
      (layer "B.Mask" (type "Bottom Solder Mask") (color "Green") (thickness 0.01))
      (layer "B.Paste" (type "Bottom Solder Paste"))
      (layer "B.SilkS" (type "Bottom Silk Screen"))
      (copper_finish "None")
      (dielectric_constraints no)
    )
    (pad_to_mask_clearance 0)
    (aux_axis_origin 69 88.25)
    (pcbplotparams
      (layerselection 0x00010fc_ffffffff)
      (plot_on_all_layers_selection 0x0000000_00000000)
      (disableapertmacros false)
      (usegerberextensions false)
      (usegerberattributes true)
      (usegerberadvancedattributes true)
      (creategerberjobfile false)
      (dashed_line_dash_ratio 12.000000)
      (dashed_line_gap_ratio 3.000000)
      (svgprecision 6)
      (plotframeref false)
      (viasonmask false)
      (mode 1)
      (useauxorigin true)
      (hpglpennumber 1)
      (hpglpenspeed 20)
      (hpglpendiameter 15.000000)
      (dxfpolygonmode true)
      (dxfimperialunits true)
      (dxfusepcbnewfont true)
      (psnegative false)
      (psa4output false)
      (plotreference true)
      (plotvalue true)
      (plotinvisibletext false)
      (sketchpadsonfab false)
      (subtractmaskfromsilk false)
      (outputformat 1)
      (mirror false)
      (drillshape 0)
      (scaleselection 1)
      (outputdirectory "/mnt/ramdisk")
    )
  )

  (net 0 "")
  (net 1 "no_connect_36")
  (net 2 "Net-(J1-Pad39)")
  (net 3 "no_connect_34")
  (net 4 "no_connect_33")
  (net 5 "no_connect_32")
  (net 6 "no_connect_31")
  (net 7 "no_connect_30")
  (net 8 "no_connect_29")
  (net 9 "no_connect_28")
  (net 10 "no_connect_27")
  (net 11 "no_connect_26")
  (net 12 "no_connect_25")
  (net 13 "no_connect_24")
  (net 14 "no_connect_23")
  (net 15 "no_connect_22")
  (net 16 "no_connect_21")
  (net 17 "no_connect_20")
  (net 18 "no_connect_19")
  (net 19 "no_connect_18")
  (net 20 "no_connect_17")
  (net 21 "no_connect_16")
  (net 22 "no_connect_14")
  (net 23 "no_connect_13")
  (net 24 "no_connect_12")
  (net 25 "no_connect_11")
  (net 26 "no_connect_10")
  (net 27 "no_connect_9")
  (net 28 "no_connect_8")
  (net 29 "no_connect_7")
  (net 30 "no_connect_6")
  (net 31 "no_connect_5")
  (net 32 "no_connect_40")
  (net 33 "no_connect_39")
  (net 34 "no_connect_38")
  (net 35 "no_connect_37")
  (net 36 "Net-(J1-Pad5)")
  (net 37 "no_connect_35")
  (net 38 "Net-(J1-Pad3)")
  (net 39 "no_connect_15")
  (net 40 "no_connect_4")

  (footprint "Resistor_SMD:R_0805_2012Metric_Pad1.20x1.40mm_HandSolder" (layer "F.Cu")
    (tstamp 4d37d442-dd5d-4f43-81df-ec0020e5109a)
    (at 70.485 52.07 -90)
    (descr "Resistor SMD 0805 (2012 Metric), square (rectangular) end terminal, IPC_7351 nominal with elongated pad for handsoldering. (Body size source: IPC-SM-782 page 72, https://www.pcb-3d.com/wordpress/wp-content/uploads/ipc-sm-782a_amendment_1_and_2.pdf), generated with kicad-footprint-generator")
    (tags "resistor handsolder")
    (property "Sheet file" "Amiga_4000_IDE_Terminator.kicad_sch")
    (property "Sheet name" "")
    (path "/e9c82b8d-7c1b-422f-b937-224839b7ef0e")
    (attr smd)
    (fp_text reference "R2" (at 3.175 0 -90 unlocked) (layer "F.SilkS")
        (effects (font (size 1 1) (thickness 0.15)))
      (tstamp 1fd952fb-bc4b-4a75-ae33-f6eeee5c5096)
    )
    (fp_text value "4,7k" (at 0 1.65 90) (layer "F.Fab")
        (effects (font (size 1 1) (thickness 0.15)))
      (tstamp b9502b29-8fc6-4e7c-91b2-7bacdec14976)
    )
    (fp_text user "${REFERENCE}" (at 0 0 90) (layer "F.Fab")
        (effects (font (size 0.5 0.5) (thickness 0.08)))
      (tstamp 9a5cc506-6568-4435-bfaa-f9cbf455b0c1)
    )
    (fp_line (start -0.227064 -0.735) (end 0.227064 -0.735)
      (stroke (width 0.12) (type solid)) (layer "F.SilkS") (tstamp 87543bc6-93ed-4a36-99e0-3383fbfafbc1))
    (fp_line (start -0.227064 0.735) (end 0.227064 0.735)
      (stroke (width 0.12) (type solid)) (layer "F.SilkS") (tstamp 437387fc-1857-4b70-b2a5-fc594b59978f))
    (fp_line (start -1.85 -0.95) (end 1.85 -0.95)
      (stroke (width 0.05) (type solid)) (layer "F.CrtYd") (tstamp 7528590a-140a-482f-9d4f-da322694df70))
    (fp_line (start -1.85 0.95) (end -1.85 -0.95)
      (stroke (width 0.05) (type solid)) (layer "F.CrtYd") (tstamp c766b9aa-288e-4690-bbae-659285b0adaf))
    (fp_line (start 1.85 -0.95) (end 1.85 0.95)
      (stroke (width 0.05) (type solid)) (layer "F.CrtYd") (tstamp 70295a06-f988-487a-b740-d37c71a03da6))
    (fp_line (start 1.85 0.95) (end -1.85 0.95)
      (stroke (width 0.05) (type solid)) (layer "F.CrtYd") (tstamp 41064bbe-74f3-4016-98d9-d572ab07d017))
    (fp_line (start -1 -0.625) (end 1 -0.625)
      (stroke (width 0.1) (type solid)) (layer "F.Fab") (tstamp 8cbefccf-e15a-4fe5-9b87-6b0593f56421))
    (fp_line (start -1 0.625) (end -1 -0.625)
      (stroke (width 0.1) (type solid)) (layer "F.Fab") (tstamp fe26600d-6d45-4ab3-87bd-058c8b95bb17))
    (fp_line (start 1 -0.625) (end 1 0.625)
      (stroke (width 0.1) (type solid)) (layer "F.Fab") (tstamp d1aae09b-023c-45ea-8486-d5d066a9c13c))
    (fp_line (start 1 0.625) (end -1 0.625)
      (stroke (width 0.1) (type solid)) (layer "F.Fab") (tstamp 7d1c019e-8a84-4edd-a83d-0a7d468cf15c))
    (pad "1" smd roundrect (at -1 0 270) (size 1.2 1.4) (layers "F.Cu" "F.Paste" "F.Mask") (roundrect_rratio 0.2083333333)
      (net 36 "Net-(J1-Pad5)") (tstamp 2d7e545b-d434-4f45-a5d3-847b58dbef3a))
    (pad "2" smd roundrect (at 1 0 270) (size 1.2 1.4) (layers "F.Cu" "F.Paste" "F.Mask") (roundrect_rratio 0.2083333333)
      (net 2 "Net-(J1-Pad39)") (tstamp 69098e5e-eb70-4162-8918-c764a8665211))
    (model "${KISYS3DMOD}/Resistor_SMD.3dshapes/R_0805_2012Metric.wrl"
      (offset (xyz 0 0 0))
      (scale (xyz 1 1 1))
      (rotate (xyz 0 0 0))
    )
  )

  (footprint "Connector_PinSocket_2.54mm:PinSocket_2x20_P2.54mm_Vertical" (layer "F.Cu")
    (tstamp d0bd4c7e-40e5-4aaa-a984-0b4261bc5dab)
    (at 76.2 38.1)
    (descr "Through hole straight socket strip, 2x20, 2.54mm pitch, double cols (from Kicad 4.0.7), script generated")
    (tags "Through hole socket strip THT 2x20 2.54mm double row")
    (property "Sheet file" "Amiga_4000_IDE_Terminator.kicad_sch")
    (property "Sheet name" "")
    (path "/b1f21a80-73cf-40d2-8252-2001faafe814")
    (attr through_hole)
    (fp_text reference "J1" (at 3.175 22.86 90) (layer "F.SilkS")
        (effects (font (size 1 1) (thickness 0.15)))
      (tstamp d6dcf33b-f326-40e2-8acd-77a42bb0795f)
    )
    (fp_text value "Conn_02x20_Odd_Even" (at -1.27 51.03) (layer "F.Fab")
        (effects (font (size 1 1) (thickness 0.15)))
      (tstamp 11efde2c-bbc0-46f4-a475-68347ada6968)
    )
    (fp_text user "${REFERENCE}" (at -1.27 24.13 90) (layer "F.Fab")
        (effects (font (size 1 1) (thickness 0.15)))
      (tstamp 6d5f8b83-00ec-4391-b398-ff786f66c903)
    )
    (fp_line (start -3.87 -1.33) (end -3.87 49.59)
      (stroke (width 0.12) (type solid)) (layer "F.SilkS") (tstamp afb41bea-a3c7-4a6d-8b86-10699d5f6f8b))
    (fp_line (start -3.87 -1.33) (end -1.27 -1.33)
      (stroke (width 0.12) (type solid)) (layer "F.SilkS") (tstamp a1540b39-fd74-4517-9782-1c65d893ec4d))
    (fp_line (start -3.87 49.59) (end 1.33 49.59)
      (stroke (width 0.12) (type solid)) (layer "F.SilkS") (tstamp 26960b1a-fc0b-4c6b-9727-f68940a73ba8))
    (fp_line (start -1.27 -1.33) (end -1.27 1.27)
      (stroke (width 0.12) (type solid)) (layer "F.SilkS") (tstamp 11115d2c-848e-473d-a789-5e417bf256cc))
    (fp_line (start -1.27 1.27) (end 1.33 1.27)
      (stroke (width 0.12) (type solid)) (layer "F.SilkS") (tstamp 311b7dc0-2232-41bb-b984-95e2f3ea8b25))
    (fp_line (start 0 -1.33) (end 1.33 -1.33)
      (stroke (width 0.12) (type solid)) (layer "F.SilkS") (tstamp 014bd7b4-7eba-480b-82f2-a4979adc72fb))
    (fp_line (start 1.33 -1.33) (end 1.33 0)
      (stroke (width 0.12) (type solid)) (layer "F.SilkS") (tstamp 90592151-940e-4a8e-ae55-6cf44c708a13))
    (fp_line (start 1.33 1.27) (end 1.33 49.59)
      (stroke (width 0.12) (type solid)) (layer "F.SilkS") (tstamp eba0a1d5-cb1e-48a5-b551-5dc5f287856d))
    (fp_line (start -4.34 -1.8) (end 1.76 -1.8)
      (stroke (width 0.05) (type solid)) (layer "F.CrtYd") (tstamp b32d03d4-c8ad-4513-98e7-a6945aaa4b42))
    (fp_line (start -4.34 50) (end -4.34 -1.8)
      (stroke (width 0.05) (type solid)) (layer "F.CrtYd") (tstamp 8e1b05a3-9f8a-4ecb-8041-7d8cc1ff99c2))
    (fp_line (start 1.76 -1.8) (end 1.76 50)
      (stroke (width 0.05) (type solid)) (layer "F.CrtYd") (tstamp 45e78ff4-d999-4f24-957c-6c0020f0f2df))
    (fp_line (start 1.76 50) (end -4.34 50)
      (stroke (width 0.05) (type solid)) (layer "F.CrtYd") (tstamp a9a54026-6dd2-4a9a-ba04-aade2aafa765))
    (fp_line (start -3.81 -1.27) (end 0.27 -1.27)
      (stroke (width 0.1) (type solid)) (layer "F.Fab") (tstamp 8233f5e4-b1b8-4584-9519-e438febe9e21))
    (fp_line (start -3.81 49.53) (end -3.81 -1.27)
      (stroke (width 0.1) (type solid)) (layer "F.Fab") (tstamp 2f87b903-01ca-4abc-b45b-f8e20dd5bf40))
    (fp_line (start 0.27 -1.27) (end 1.27 -0.27)
      (stroke (width 0.1) (type solid)) (layer "F.Fab") (tstamp 13ea5a0c-22d4-4994-8e94-5751ce971647))
    (fp_line (start 1.27 -0.27) (end 1.27 49.53)
      (stroke (width 0.1) (type solid)) (layer "F.Fab") (tstamp f176f5e0-d74a-4d9f-974c-3a2de12d94c2))
    (fp_line (start 1.27 49.53) (end -3.81 49.53)
      (stroke (width 0.1) (type solid)) (layer "F.Fab") (tstamp b75ea80c-b3c4-442d-9778-9a1892db1f2f))
    (pad "1" thru_hole rect (at 0 0) (size 1.7 1.7) (drill 1) (layers "*.Cu" "*.Mask")
      (net 40 "no_connect_4") (pinfunction "Pin_1") (tstamp 9dd115ba-1dd9-4fc7-85b8-118b3348039f))
    (pad "2" thru_hole oval (at -2.54 0) (size 1.7 1.7) (drill 1) (layers "*.Cu" "*.Mask")
      (net 39 "no_connect_15") (pinfunction "Pin_2") (tstamp 956c7839-336a-4f15-9515-0787dbe3a31b))
    (pad "3" thru_hole oval (at 0 2.54) (size 1.7 1.7) (drill 1) (layers "*.Cu" "*.Mask")
      (net 38 "Net-(J1-Pad3)") (pinfunction "Pin_3") (tstamp 6d151186-016a-4a5d-bc3c-6be05270b91e))
    (pad "4" thru_hole oval (at -2.54 2.54) (size 1.7 1.7) (drill 1) (layers "*.Cu" "*.Mask")
      (net 37 "no_connect_35") (pinfunction "Pin_4") (tstamp e7d352b8-ecb0-4bb8-bc8b-9398c46cb6b0))
    (pad "5" thru_hole oval (at 0 5.08) (size 1.7 1.7) (drill 1) (layers "*.Cu" "*.Mask")
      (net 36 "Net-(J1-Pad5)") (pinfunction "Pin_5") (tstamp 795100d2-9d9a-42c1-8dcc-8f6588272762))
    (pad "6" thru_hole oval (at -2.54 5.08) (size 1.7 1.7) (drill 1) (layers "*.Cu" "*.Mask")
      (net 35 "no_connect_37") (pinfunction "Pin_6") (tstamp 36e97531-f13a-4f39-af84-be8e7a29370f))
    (pad "7" thru_hole oval (at 0 7.62) (size 1.7 1.7) (drill 1) (layers "*.Cu" "*.Mask")
      (net 34 "no_connect_38") (pinfunction "Pin_7") (tstamp 36f8aec7-e925-41ff-9df4-86a6c59e5bba))
    (pad "8" thru_hole oval (at -2.54 7.62) (size 1.7 1.7) (drill 1) (layers "*.Cu" "*.Mask")
      (net 33 "no_connect_39") (pinfunction "Pin_8") (tstamp e19d6292-edb0-4867-8836-46a788ed1f7a))
    (pad "9" thru_hole oval (at 0 10.16) (size 1.7 1.7) (drill 1) (layers "*.Cu" "*.Mask")
      (net 32 "no_connect_40") (pinfunction "Pin_9") (tstamp d36b9bb7-3bb3-48ee-985a-8575b313e48f))
    (pad "10" thru_hole oval (at -2.54 10.16) (size 1.7 1.7) (drill 1) (layers "*.Cu" "*.Mask")
      (net 31 "no_connect_5") (pinfunction "Pin_10") (tstamp 36c3dfba-073c-4cca-8f4f-225c425c398b))
    (pad "11" thru_hole oval (at 0 12.7) (size 1.7 1.7) (drill 1) (layers "*.Cu" "*.Mask")
      (net 30 "no_connect_6") (pinfunction "Pin_11") (tstamp 58d2af7a-e0ac-4b33-882e-05901fad1129))
    (pad "12" thru_hole oval (at -2.54 12.7) (size 1.7 1.7) (drill 1) (layers "*.Cu" "*.Mask")
      (net 29 "no_connect_7") (pinfunction "Pin_12") (tstamp 30ca6b29-ff43-4540-8b58-4839dd63db49))
    (pad "13" thru_hole oval (at 0 15.24) (size 1.7 1.7) (drill 1) (layers "*.Cu" "*.Mask")
      (net 28 "no_connect_8") (pinfunction "Pin_13") (tstamp 5b14574f-6db8-40ba-8af4-02bae2f42743))
    (pad "14" thru_hole oval (at -2.54 15.24) (size 1.7 1.7) (drill 1) (layers "*.Cu" "*.Mask")
      (net 27 "no_connect_9") (pinfunction "Pin_14") (tstamp d63a9979-3ca1-4830-a264-3d190d698667))
    (pad "15" thru_hole oval (at 0 17.78) (size 1.7 1.7) (drill 1) (layers "*.Cu" "*.Mask")
      (net 26 "no_connect_10") (pinfunction "Pin_15") (tstamp c1a917d7-2561-401b-b0d7-9ecc3d2a57ec))
    (pad "16" thru_hole oval (at -2.54 17.78) (size 1.7 1.7) (drill 1) (layers "*.Cu" "*.Mask")
      (net 25 "no_connect_11") (pinfunction "Pin_16") (tstamp fdb97a89-2f36-43e1-bb89-63f57d28799b))
    (pad "17" thru_hole oval (at 0 20.32) (size 1.7 1.7) (drill 1) (layers "*.Cu" "*.Mask")
      (net 24 "no_connect_12") (pinfunction "Pin_17") (tstamp 2ba10192-8b6d-4b92-9fba-2ef82892a697))
    (pad "18" thru_hole oval (at -2.54 20.32) (size 1.7 1.7) (drill 1) (layers "*.Cu" "*.Mask")
      (net 23 "no_connect_13") (pinfunction "Pin_18") (tstamp 0ab22c10-6cb9-43ea-97c6-6774cc5b7a8e))
    (pad "19" thru_hole oval (at 0 22.86) (size 1.7 1.7) (drill 1) (layers "*.Cu" "*.Mask")
      (net 22 "no_connect_14") (pinfunction "Pin_19") (tstamp 41b3dc31-7753-4aed-bf1d-89e04445f4fe))
    (pad "20" thru_hole oval (at -2.54 22.86) (size 1.7 1.7) (drill 1) (layers "*.Cu" "*.Mask")
      (net 21 "no_connect_16") (pinfunction "Pin_20") (tstamp 1209ed91-e684-462b-a7e9-0396ea5d6937))
    (pad "21" thru_hole oval (at 0 25.4) (size 1.7 1.7) (drill 1) (layers "*.Cu" "*.Mask")
      (net 20 "no_connect_17") (pinfunction "Pin_21") (tstamp d6d4d225-7a7d-4d7f-a4ea-d0285fa66e94))
    (pad "22" thru_hole oval (at -2.54 25.4) (size 1.7 1.7) (drill 1) (layers "*.Cu" "*.Mask")
      (net 19 "no_connect_18") (pinfunction "Pin_22") (tstamp 07ca7b9d-92da-4959-ba5c-47fcf6714b1d))
    (pad "23" thru_hole oval (at 0 27.94) (size 1.7 1.7) (drill 1) (layers "*.Cu" "*.Mask")
      (net 18 "no_connect_19") (pinfunction "Pin_23") (tstamp ded3dee8-6da0-4563-9187-a33945ed9375))
    (pad "24" thru_hole oval (at -2.54 27.94) (size 1.7 1.7) (drill 1) (layers "*.Cu" "*.Mask")
      (net 17 "no_connect_20") (pinfunction "Pin_24") (tstamp 91c3ffdc-b109-480c-a57b-cac836540838))
    (pad "25" thru_hole oval (at 0 30.48) (size 1.7 1.7) (drill 1) (layers "*.Cu" "*.Mask")
      (net 16 "no_connect_21") (pinfunction "Pin_25") (tstamp 53965ed2-949e-4839-bd98-5e5d9388d495))
    (pad "26" thru_hole oval (at -2.54 30.48) (size 1.7 1.7) (drill 1) (layers "*.Cu" "*.Mask")
      (net 15 "no_connect_22") (pinfunction "Pin_26") (tstamp bcf170c5-20b0-4837-b5ed-c960ac0b5c74))
    (pad "27" thru_hole oval (at 0 33.02) (size 1.7 1.7) (drill 1) (layers "*.Cu" "*.Mask")
      (net 14 "no_connect_23") (pinfunction "Pin_27") (tstamp 3ea79636-d70f-4d55-bbe0-98396c4b0ce9))
    (pad "28" thru_hole oval (at -2.54 33.02) (size 1.7 1.7) (drill 1) (layers "*.Cu" "*.Mask")
      (net 13 "no_connect_24") (pinfunction "Pin_28") (tstamp beed4df4-e4ad-45aa-8a50-c160cdfc78a0))
    (pad "29" thru_hole oval (at 0 35.56) (size 1.7 1.7) (drill 1) (layers "*.Cu" "*.Mask")
      (net 12 "no_connect_25") (pinfunction "Pin_29") (tstamp 371123b5-91e2-427f-81b7-01635fbd3557))
    (pad "30" thru_hole oval (at -2.54 35.56) (size 1.7 1.7) (drill 1) (layers "*.Cu" "*.Mask")
      (net 11 "no_connect_26") (pinfunction "Pin_30") (tstamp 2212424e-49be-4b28-9c50-f12fd7728d31))
    (pad "31" thru_hole oval (at 0 38.1) (size 1.7 1.7) (drill 1) (layers "*.Cu" "*.Mask")
      (net 10 "no_connect_27") (pinfunction "Pin_31") (tstamp 19c48bf8-fc6c-413d-99ad-ed80215d7a9a))
    (pad "32" thru_hole oval (at -2.54 38.1) (size 1.7 1.7) (drill 1) (layers "*.Cu" "*.Mask")
      (net 9 "no_connect_28") (pinfunction "Pin_32") (tstamp 7b7e6d39-217d-43c2-8b98-910ad3622ed4))
    (pad "33" thru_hole oval (at 0 40.64) (size 1.7 1.7) (drill 1) (layers "*.Cu" "*.Mask")
      (net 8 "no_connect_29") (pinfunction "Pin_33") (tstamp fa69e0db-c5e9-4632-871b-0a40cd007359))
    (pad "34" thru_hole oval (at -2.54 40.64) (size 1.7 1.7) (drill 1) (layers "*.Cu" "*.Mask")
      (net 7 "no_connect_30") (pinfunction "Pin_34") (tstamp 5f2a741f-eff2-492f-8c24-3c33c29bdbc1))
    (pad "35" thru_hole oval (at 0 43.18) (size 1.7 1.7) (drill 1) (layers "*.Cu" "*.Mask")
      (net 6 "no_connect_31") (pinfunction "Pin_35") (tstamp 3c13a0d7-ba89-4f28-9ac6-f6c6bfff9955))
    (pad "36" thru_hole oval (at -2.54 43.18) (size 1.7 1.7) (drill 1) (layers "*.Cu" "*.Mask")
      (net 5 "no_connect_32") (pinfunction "Pin_36") (tstamp 9834b7ae-9101-46eb-916c-cd3eaa5de63b))
    (pad "37" thru_hole oval (at 0 45.72) (size 1.7 1.7) (drill 1) (layers "*.Cu" "*.Mask")
      (net 4 "no_connect_33") (pinfunction "Pin_37") (tstamp 5393b93a-b1af-421c-9e2b-ebb65e0dfefb))
    (pad "38" thru_hole oval (at -2.54 45.72) (size 1.7 1.7) (drill 1) (layers "*.Cu" "*.Mask")
      (net 3 "no_connect_34") (pinfunction "Pin_38") (tstamp 23c56e17-8dfc-4d5d-910d-ee70146d5ae2))
    (pad "39" thru_hole oval (at 0 48.26) (size 1.7 1.7) (drill 1) (layers "*.Cu" "*.Mask")
      (net 2 "Net-(J1-Pad39)") (pinfunction "Pin_39") (tstamp 284024f5-58dc-475c-803c-396d6e0ea7dd))
    (pad "40" thru_hole oval (at -2.54 48.26) (size 1.7 1.7) (drill 1) (layers "*.Cu" "*.Mask")
      (net 1 "no_connect_36") (pinfunction "Pin_40") (tstamp 16fa7386-bb92-4ebb-ac24-4fae35ea0c54))
    (model "${KISYS3DMOD}/Connector_PinSocket_2.54mm.3dshapes/PinSocket_2x20_P2.54mm_Vertical.wrl"
      (offset (xyz 0 0 0))
      (scale (xyz 1 1 1))
      (rotate (xyz 0 0 0))
    )
  )

  (footprint "Resistor_SMD:R_0805_2012Metric_Pad1.20x1.40mm_HandSolder" (layer "F.Cu")
    (tstamp d7971597-debe-4e02-ba7c-b18ac2f4b4a1)
    (at 70.485 45.72 -90)
    (descr "Resistor SMD 0805 (2012 Metric), square (rectangular) end terminal, IPC_7351 nominal with elongated pad for handsoldering. (Body size source: IPC-SM-782 page 72, https://www.pcb-3d.com/wordpress/wp-content/uploads/ipc-sm-782a_amendment_1_and_2.pdf), generated with kicad-footprint-generator")
    (tags "resistor handsolder")
    (property "Sheet file" "Amiga_4000_IDE_Terminator.kicad_sch")
    (property "Sheet name" "")
    (path "/1e7c9c25-00ef-403d-afea-ed48da142cab")
    (attr smd)
    (fp_text reference "R1" (at -3.175 0 -90 unlocked) (layer "F.SilkS")
        (effects (font (size 1 1) (thickness 0.15)))
      (tstamp 2207bff2-cce8-4a3c-9656-d0450088c8e0)
    )
    (fp_text value "4,7k" (at 0 1.65 90) (layer "F.Fab")
        (effects (font (size 1 1) (thickness 0.15)))
      (tstamp 295cf8ec-7121-48bf-83eb-bd5005fa896e)
    )
    (fp_text user "${REFERENCE}" (at 0 0 90) (layer "F.Fab")
        (effects (font (size 0.5 0.5) (thickness 0.08)))
      (tstamp e6d87783-6701-4149-b987-1a94751a51b2)
    )
    (fp_line (start -0.227064 -0.735) (end 0.227064 -0.735)
      (stroke (width 0.12) (type solid)) (layer "F.SilkS") (tstamp fef79db8-2c4d-4fbb-bfc8-5799302d2150))
    (fp_line (start -0.227064 0.735) (end 0.227064 0.735)
      (stroke (width 0.12) (type solid)) (layer "F.SilkS") (tstamp b84c756c-1548-4904-a1fc-4521c9684683))
    (fp_line (start -1.85 -0.95) (end 1.85 -0.95)
      (stroke (width 0.05) (type solid)) (layer "F.CrtYd") (tstamp 634825a1-d755-4b40-9e4e-b3d3eb1508cd))
    (fp_line (start -1.85 0.95) (end -1.85 -0.95)
      (stroke (width 0.05) (type solid)) (layer "F.CrtYd") (tstamp 5f1cffbc-b08d-49f6-b6ff-d852eb942e7c))
    (fp_line (start 1.85 -0.95) (end 1.85 0.95)
      (stroke (width 0.05) (type solid)) (layer "F.CrtYd") (tstamp 6ba4b1dd-0dad-4806-b923-46a99e2679e9))
    (fp_line (start 1.85 0.95) (end -1.85 0.95)
      (stroke (width 0.05) (type solid)) (layer "F.CrtYd") (tstamp 27c80536-b6ad-418a-b44f-e295f10c8a80))
    (fp_line (start -1 -0.625) (end 1 -0.625)
      (stroke (width 0.1) (type solid)) (layer "F.Fab") (tstamp 1d636620-c9b0-451e-a620-a332316ce767))
    (fp_line (start -1 0.625) (end -1 -0.625)
      (stroke (width 0.1) (type solid)) (layer "F.Fab") (tstamp 62341ed3-a584-4fe6-b51d-206329ff59ac))
    (fp_line (start 1 -0.625) (end 1 0.625)
      (stroke (width 0.1) (type solid)) (layer "F.Fab") (tstamp 51cd1172-b3c5-4cb2-89a7-0a67d88d77eb))
    (fp_line (start 1 0.625) (end -1 0.625)
      (stroke (width 0.1) (type solid)) (layer "F.Fab") (tstamp c4dd06c5-8a15-4f07-8886-70d6669772ac))
    (pad "1" smd roundrect (at -1 0 270) (size 1.2 1.4) (layers "F.Cu" "F.Paste" "F.Mask") (roundrect_rratio 0.2083333333)
      (net 38 "Net-(J1-Pad3)") (tstamp b85fbd4a-25ed-4921-9be0-69f1bd445e31))
    (pad "2" smd roundrect (at 1 0 270) (size 1.2 1.4) (layers "F.Cu" "F.Paste" "F.Mask") (roundrect_rratio 0.2083333333)
      (net 2 "Net-(J1-Pad39)") (tstamp 6431d7be-d5f4-416c-9a4f-a58014b1d3e0))
    (model "${KISYS3DMOD}/Resistor_SMD.3dshapes/R_0805_2012Metric.wrl"
      (offset (xyz 0 0 0))
      (scale (xyz 1 1 1))
      (rotate (xyz 0 0 0))
    )
  )

  (gr_rect (start 69 36.25) (end 78 88.25)
    (stroke (width 0.1) (type solid)) (fill none) (layer "Edge.Cuts") (tstamp 5e8f3833-0a00-4698-aed4-4a255ba5e6d7))
  (gr_text "Amiga 4000 IDE Terminator designed by RWahler@gmx.net v${REVISION}\nManufactured in Licence by Alinea Computer www.amiga-shop.net" (at 70.75 36.75 90) (layer "B.SilkS") (tstamp f8202955-1b16-42ec-96e3-3b46e30ffd09)
    (effects (font (size 1 1) (thickness 0.15)) (justify left mirror))
  )
  (gr_text "1" (at 71.12 38.07 270) (layer "F.SilkS") (tstamp 1998f5bf-432e-44f8-a54b-eccd8516c874)
    (effects (font (size 1 1) (thickness 0.15)))
  )
  (dimension (type aligned) (layer "User.1") (tstamp 8079b8a6-c3ed-4164-a313-a9fdd34bd896)
    (pts (xy 69 36) (xy 78 36))
    (height -3)
    (gr_text "9,0 mm" (at 73.5 31.85) (layer "User.1") (tstamp 8079b8a6-c3ed-4164-a313-a9fdd34bd896)
      (effects (font (size 1 1) (thickness 0.15)))
    )
    (format (prefix "") (suffix "") (units 3) (units_format 1) (precision 1))
    (style (thickness 0.15) (arrow_length 1.27) (text_position_mode 0) (extension_height 0.58642) (extension_offset 0.5) keep_text_aligned)
  )
  (dimension (type aligned) (layer "User.1") (tstamp f988de3e-925e-48fa-8c0e-42b8cf062795)
    (pts (xy 78 88.25) (xy 78 36.25))
    (height 3)
    (gr_text "52,0 mm" (at 79.85 62.25 90) (layer "User.1") (tstamp f988de3e-925e-48fa-8c0e-42b8cf062795)
      (effects (font (size 1 1) (thickness 0.15)))
    )
    (format (prefix "") (suffix "") (units 3) (units_format 1) (precision 1))
    (style (thickness 0.15) (arrow_length 1.27) (text_position_mode 0) (extension_height 0.58642) (extension_offset 0.5) keep_text_aligned)
  )

  (segment (start 70.485 53.07) (end 71.755 53.07) (width 0.4) (layer "F.Cu") (net 2) (tstamp 00255e81-74e7-4002-8c35-38257396b2ae))
  (segment (start 71.755 47.99) (end 71.755 84.455) (width 0.4) (layer "F.Cu") (net 2) (tstamp 0b55257a-327f-4e3f-849a-80a74f007ad9))
  (segment (start 70.485 46.72) (end 71.755 47.99) (width 0.4) (layer "F.Cu") (net 2) (tstamp 76808ded-1912-41f2-81dd-48db06c4c385))
  (segment (start 74.93 85.09) (end 76.2 86.36) (width 0.4) (layer "F.Cu") (net 2) (tstamp c75682db-3891-4d01-b31b-83e68b24b6c3))
  (segment (start 72.39 85.09) (end 74.93 85.09) (width 0.4) (layer "F.Cu") (net 2) (tstamp c96293c9-b54f-4975-ae89-3a353157023a))
  (segment (start 71.755 84.455) (end 72.39 85.09) (width 0.4) (layer "F.Cu") (net 2) (tstamp f17acf56-9406-4311-a274-9432f0d2153a))
  (segment (start 70.485 48.895) (end 70.485 51.07) (width 0.4) (layer "F.Cu") (net 36) (tstamp 0f891773-67a4-4b04-b71f-35e6893f776e))
  (via (at 70.485 48.895) (size 0.8) (drill 0.4) (layers "F.Cu" "B.Cu") (net 36) (tstamp 9e574a38-c31d-4c3d-be28-55b05d6ed814))
  (segment (start 74.910011 44.469989) (end 73.005011 44.469989) (width 0.4) (layer "B.Cu") (net 36) (tstamp 213c8fbc-646b-4385-bf42-da19b0d8d8f6))
  (segment (start 70.485 46.99) (end 70.485 48.895) (width 0.4) (layer "B.Cu") (net 36) (tstamp 3d38a015-2e8e-4263-bed5-28b4d1bc04f6))
  (segment (start 73.005011 44.469989) (end 70.485 46.99) (width 0.4) (layer "B.Cu") (net 36) (tstamp 9400cb9b-e1e2-40b4-853d-4f9edebc21f4))
  (segment (start 76.2 43.18) (end 74.910011 44.469989) (width 0.4) (layer "B.Cu") (net 36) (tstamp c178aa63-8c60-4989-a79f-6d68a7f9b60c))
  (segment (start 76.2 40.64) (end 74.910011 41.929989) (width 0.4) (layer "F.Cu") (net 38) (tstamp 1fb062f1-ce71-4db3-86a0-2119c3251fda))
  (segment (start 70.485 44.12) (end 70.485 44.72) (width 0.4) (layer "F.Cu") (net 38) (tstamp 5821b3d3-2cd7-4581-8439-2abfe0adc34d))
  (segment (start 74.910011 41.929989) (end 72.675011 41.929989) (width 0.4) (layer "F.Cu") (net 38) (tstamp 58e1e477-06e7-4cdf-aa14-29569f51058f))
  (segment (start 72.675011 41.929989) (end 70.485 44.12) (width 0.4) (layer "F.Cu") (net 38) (tstamp cf27e9a8-abea-487f-a2e8-1b9ed82ead28))
  (segment (start 76.47 40.91) (end 76.2 40.64) (width 0.4) (layer "F.Cu") (net 38) (tstamp f417214f-2526-4c3e-9fa3-8f7043dc0c61))

)
